PDLP1 reanalysis, QC-plots
…
This script visualizes the results. It creates QC plots of samples in LC-MS measurements, based on protein and peptide identifications. It asumes all the data are loded in an MSnSet object.

Tidying MSnSet object with biobroom

if (require("MSnbase")) {
  library(MSnbase)}
  # import MSnSet object
eprot <- readRDS("eprot.rds")
  #already imported...
  
  # Use tidy to extract genes, sample ids and measured value
  tidy(eprot)

## # A tibble: 18,172 x 3
##    protein                                 sample.id value
##    <chr>                                   <chr>     <dbl>
##  1 04266                                   C_H_2        25
##  2 180216|S.tuberosum_SERK3-GFP|for_Alicia C_H_2         0
##  3 181014|Z.mays_RFP-FEA3|for_FangXu       C_H_2        20
##  4 20144                                   C_H_2         0
##  5 ART4-eGFP                               C_H_2         0
##  6 AT1G01050.1                             C_H_2         1
##  7 AT1G01090.1                             C_H_2         0
##  8 AT1G01560.1                             C_H_2         0
##  9 AT1G01620.1                             C_H_2         0
## 10 AT1G01695.1                             C_H_2         0
## # ... with 18,162 more rows
…
dim(et)

## [1] 18172     6

etg <- et %>% group_by(phenotype) %>% dplyr::summarise(value = mean(value, na.rm = TRUE));
etg <- et %>% group_by(phenotype) %>% dplyr::summarise(value = n());
etg <- et %>% group_by(treatment) %>% dplyr::summarise(value = n());
etg <- et %>% group_by(phenotype,treatment) %>% dplyr::summarise(value = n());

# average spectral count
etg <- et %>% group_by(protein,phenotype,treatment) %>% dplyr::summarise(value = mean(value, na.rm = TRUE));
etg

## # A tibble: 5,192 x 4
## # Groups:   protein, phenotype [2,596]
##    protein                                 phenotype treatment  value
##    <fct>                                   <chr>     <chr>      <dbl>
##  1 04266                                   C         H          25.3 
##  2 04266                                   C         I         694   
##  3 04266                                   P         H         444.  
##  4 04266                                   P         I         804.  
##  5 180216|S.tuberosum_SERK3-GFP|for_Alicia C         H           0   
##  6 180216|S.tuberosum_SERK3-GFP|for_Alicia C         I           3.5 
##  7 180216|S.tuberosum_SERK3-GFP|for_Alicia P         H           2.25
##  8 180216|S.tuberosum_SERK3-GFP|for_Alicia P         I           5.2 
##  9 181014|Z.mays_RFP-FEA3|for_FangXu       C         H           6.67
## 10 181014|Z.mays_RFP-FEA3|for_FangXu       C         I           0   
## # ... with 5,182 more rows
…
